{
    "legacy_addon_id": "",
    "title": "[AP] Activity/Longevity Meters",
    "description": "Adds activity/longevity meters to the postbit & profile.",
    "version_id": 1020170,
    "version_string": "1.2.1",
    "dev": "apathy",
    "dev_url": "https://fortreeforums.xyz/",
    "faq_url": "",
    "support_url": "https://fortreeforums.xyz/threads/ap-activity-longevity-meters.1539/",
    "extra_urls": [],
    "require": [],
    "icon": "icon.png"
}